<svg width="28" height="21" viewBox="0 0 28 21" fill="none" xmlns="http://www.w3.org/2000/svg">
<path d="M24.0941 4.34124C24.0941 4.49047 24.0324 4.6336 23.9226 4.73913C23.8128 4.84465 23.6638 4.90394 23.5085 4.90394H10.6841C10.5288 4.90394 10.3798 4.84465 10.27 4.73913C10.1602 4.6336 10.0985 4.49047 10.0985 4.34124C10.0985 4.192 10.1602 4.04887 10.27 3.94335C10.3798 3.83782 10.5288 3.77854 10.6841 3.77854H23.5085C23.6638 3.77854 23.8128 3.83782 23.9226 3.94335C24.0324 4.04887 24.0941 4.192 24.0941 4.34124ZM10.6841 7.96784H14.5431C14.6984 7.96784 14.8474 7.90856 14.9572 7.80303C15.067 7.6975 15.1287 7.55438 15.1287 7.40514C15.1287 7.2559 15.067 7.11278 14.9572 7.00725C14.8474 6.90172 14.6984 6.84244 14.5431 6.84244H10.6841C10.5288 6.84244 10.3798 6.90172 10.27 7.00725C10.1602 7.11278 10.0985 7.2559 10.0985 7.40514C10.0985 7.55438 10.1602 7.6975 10.27 7.80303C10.3798 7.90856 10.5288 7.96784 10.6841 7.96784ZM10.6841 11.0233H14.5431C14.6984 11.0233 14.8474 10.964 14.9572 10.8585C15.067 10.753 15.1287 10.6098 15.1287 10.4606C15.1287 10.3114 15.067 10.1682 14.9572 10.0627C14.8474 9.95719 14.6984 9.89791 14.5431 9.89791H10.6841C10.5288 9.89791 10.3798 9.95719 10.27 10.0627C10.1602 10.1682 10.0985 10.3114 10.0985 10.4606C10.0985 10.6098 10.1602 10.753 10.27 10.8585C10.3798 10.964 10.5288 11.0233 10.6841 11.0233ZM10.6841 14.0788H14.5431C14.6984 14.0788 14.8474 14.0195 14.9572 13.914C15.067 13.8084 15.1287 13.6653 15.1287 13.5161C15.1287 13.3668 15.067 13.2237 14.9572 13.1182C14.8474 13.0127 14.6984 12.9534 14.5431 12.9534H10.6841C10.5288 12.9534 10.3798 13.0127 10.27 13.1182C10.1602 13.2237 10.0985 13.3668 10.0985 13.5161C10.0985 13.6653 10.1602 13.8084 10.27 13.914C10.3798 14.0195 10.5288 14.0788 10.6841 14.0788ZM23.5085 16.0088H10.6841C10.5288 16.0088 10.3798 16.0681 10.27 16.1736C10.1602 16.2792 10.0985 16.4223 10.0985 16.5715C10.0985 16.7208 10.1602 16.8639 10.27 16.9694C10.3798 17.075 10.5288 17.1342 10.6841 17.1342H23.5085C23.6638 17.1342 23.8128 17.075 23.9226 16.9694C24.0324 16.8639 24.0941 16.7208 24.0941 16.5715C24.0941 16.4223 24.0324 16.2792 23.9226 16.1736C23.8128 16.0681 23.6638 16.0088 23.5085 16.0088ZM24.0941 7.40233V13.5104C24.0941 13.6597 24.0324 13.8028 23.9226 13.9083C23.8128 14.0139 23.6638 14.0731 23.5085 14.0731H17.8078C17.6525 14.0731 17.5035 14.0139 17.3937 13.9083C17.2839 13.8028 17.2222 13.6597 17.2222 13.5104V7.40514C17.2222 7.2559 17.2839 7.11278 17.3937 7.00725C17.5035 6.90172 17.6525 6.84244 17.8078 6.84244H23.5085C23.6638 6.84244 23.8128 6.90172 23.9226 7.00725C24.0324 7.11278 24.0941 7.2559 24.0941 7.40514V7.40233ZM22.9229 7.96503H18.3934V12.9477H22.9229V7.96503ZM0 17.4634V6.49075C2.31427e-09 6.34152 0.0616959 6.19839 0.171515 6.09286C0.281335 5.98734 0.430282 5.92805 0.58559 5.92805C0.740898 5.92805 0.889846 5.98734 0.999665 6.09286C1.10948 6.19839 1.17118 6.34152 1.17118 6.49075V17.4634C1.1934 18.0883 1.46735 18.6804 1.93522 19.1149C2.4031 19.5494 3.02831 19.7922 3.67897 19.7922C4.32963 19.7922 4.95484 19.5494 5.42272 19.1149C5.89059 18.6804 6.16454 18.0883 6.18676 17.4634V0.562701C6.18676 0.413463 6.24846 0.270338 6.35828 0.164811C6.4681 0.0592842 6.61704 0 6.77235 0H27.4144C27.5697 0 27.7187 0.0592842 27.8285 0.164811C27.9383 0.270338 28 0.413463 28 0.562701V17.9642C28.0004 18.3635 27.9187 18.7588 27.7597 19.1277C27.6007 19.4966 27.3675 19.8316 27.0735 20.1137C26.7794 20.3957 26.4303 20.6192 26.0461 20.7713C25.662 20.9234 25.2504 21.0011 24.8349 21H3.68043C2.70456 20.9992 1.76888 20.6264 1.07883 19.9633C0.388783 19.3003 0.000775427 18.4011 0 17.4634ZM6.36829 19.8746H24.8349C25.0956 19.8746 25.3537 19.8252 25.5946 19.7294C25.8354 19.6335 26.0543 19.493 26.2386 19.3159C26.4229 19.1387 26.5692 18.9285 26.6689 18.697C26.7687 18.4656 26.82 18.2175 26.82 17.967V1.1254H7.36087V17.4634C7.36189 18.3588 7.00803 19.2209 6.37122 19.8746H6.36829ZM3.09484 6.60892V17.455C3.09484 17.6042 3.15654 17.7473 3.26636 17.8529C3.37618 17.9584 3.52513 18.0177 3.68043 18.0177C3.83574 18.0177 3.98469 17.9584 4.09451 17.8529C4.20433 17.7473 4.26603 17.6042 4.26603 17.455V6.60892C4.26603 6.45968 4.20433 6.31656 4.09451 6.21103C3.98469 6.1055 3.83574 6.04622 3.68043 6.04622C3.52513 6.04622 3.37618 6.1055 3.26636 6.21103C3.15654 6.31656 3.09484 6.45968 3.09484 6.60892Z" fill="#616161"/>
</svg>
