<svg width="32" height="32" viewBox="0 0 32 32" fill="none" xmlns="http://www.w3.org/2000/svg">
<path fill-rule="evenodd" clip-rule="evenodd" d="M16 14.5858L30.5861 -0.000305176L32.0003 1.41391L17.4142 16L32.0003 30.586L30.5861 32.0002L16 17.4142L1.41397 32.0002L-0.000244141 30.586L14.5858 16L-0.000242865 1.41391L1.41397 -0.000305176L16 14.5858Z" fill="white"/>
</svg>
